<svg xmlns="http://www.w3.org/2000/svg" width="66" height="66" viewBox="0 0 66 66">
  <g id="menu-overlay" transform="translate(0 1)">
    <rect id="Rectangle_3812" data-name="Rectangle 3812" width="66" height="66" transform="translate(0 -1)" fill="none"/>
    <rect id="Rectangle_3808" data-name="Rectangle 3808" width="12" height="3" rx="1.5" transform="translate(30 24)" fill="#fff"/>
    <rect id="Rectangle_3809" data-name="Rectangle 3809" width="18" height="3" rx="1.5" transform="translate(24 30)" fill="#fff"/>
    <rect id="Rectangle_3810" data-name="Rectangle 3810" width="12" height="3" rx="1.5" transform="translate(24 36)" fill="#fff"/>
  </g>
</svg>
